Shiny App-Packages – 7 Data
…
Then load, document, and install moviesApp:

Ctrl/Cmd + Shift + L / D / B

We can import movies.fst using system.file() to create a path to the file:

tibble::as_tibble(
  fst::read_fst(path = 
      system.file("extdata/", "movies.fst", package = "moviesApp")
    )
  )

show/hide

## A tibble: 651 × 34
#    title  title_type genre runtime mpaa_rating studio thtr_rel_date      
#    <chr>  <fct>      <fct>   <dbl> <fct>       <fct>  <dttm>             
#  1 Filly… Feature F… Drama      80 R           Indom… 2013-04-18 21:00:00
#  2 The D… Feature F… Drama     101 PG-13       Warne… 2001-03-13 21:00:00
#  3 Waiti… Feature F… Come…      84 R           Sony … 1996-08-20 21:00:00
#  4 The A… Feature F… Drama     139 PG          Colum… 1993-09-30 21:00:00
#  5 Malev… Feature F… Horr…      90 R           Ancho… 2004-09-09 21:00:00
#  6 Old P… Documenta… Docu…      78 Unrated     Shcal… 2009-01-14 21:00:00
#  7 Lady … Feature F… Drama     142 PG-13       Param… 1985-12-31 21:00:00
#  8 Mad D… Feature F… Drama      93 R           MGM/U… 1996-11-07 21:00:00
#  9 Beaut… Documenta… Docu…      88 Unrated     Indep… 2012-09-06 21:00:00
# 10 The S… Feature F… Drama     119 Unrated     IFC F… 2012-03-01 21:00:00
## ℹ 641 more rows
## ℹ 27 more variables: thtr_rel_year <dbl>, thtr_rel_month <dbl>,
##   thtr_rel_day <dbl>, dvd_rel_date <dttm>, dvd_rel_year <dbl>,
##   dvd_rel_month <dbl>, dvd_rel_day <dbl>, imdb_rating <dbl>,
##   imdb_num_votes <int>, critics_rating <fct>, critics_score <dbl>,
##   audience_rating <fct>, audience_score <dbl>, best_pic_nom <fct>,
##   best_pic_win <fct>, best_actor_win <fct>, best_actress_win <fct>, …
## ℹ Use `print(n = ...)` to see more rows
…
